TimeStamp,ProductId,MidPrice,BidOfferSpread
2017-12-15 09:43:03:88,9128283H1,99-001,0-002
2017-12-15 09:43:03:388,9128283H1,99-207,0-003
2017-12-15 09:43:03:688,9128283H1,100-213,0-002
2017-12-15 09:43:03:988,9128283H1,99-050,0-002
2017-12-15 09:43:04:288,9128283H1,99-305,0-003
2017-12-15 09:43:04:588,9128283H1,99-29+,0-003
2017-12-15 09:43:04:888,9128283H1,100-216,0-002
2017-12-15 09:43:05:188,9128283H1,100-312,0-003
2017-12-15 09:43:05:488,9128283H1,99-292,0-00+
2017-12-15 09:43:05:788,9128283H1,100-275,0-00+
2017-12-15 09:43:06:88,9128283H1,99-25+,0-00+
2017-12-15 09:43:06:389,9128283H1,100-250,0-00+
2017-12-15 09:43:06:689,9128283H1,99-242,0-003
2017-12-15 09:43:06:989,9128283H1,100-225,0-003
2017-12-15 09:43:07:289,9128283H1,99-146,0-002
2017-12-15 09:43:07:589,9128283H1,100-135,0-003
2017-12-15 09:43:07:889,9128283H1,99-096,0-00+
2017-12-15 09:43:08:189,9128283H1,100-096,0-002
2017-12-15 09:43:08:489,9128283H1,99-276,0-00+
2017-12-15 09:43:08:789,9128283H1,100-06+,0-003
2017-12-15 09:43:09:89,9128283H1,99-285,0-002
2017-12-15 09:43:09:389,9128283H1,100-006,0-002
2017-12-15 09:43:09:689,9128283H1,99-257,0-00+
2017-12-15 09:43:09:989,9128283H1,99-080,0-002
2017-12-15 09:43:10:290,9128283H1,99-086,0-002
2017-12-15 09:43:10:590,9128283H1,100-245,0-00+
2017-12-15 09:43:10:890,9128283H1,100-301,0-003
2017-12-15 09:43:11:190,9128283H1,100-207,0-00+
2017-12-15 09:43:11:490,9128283H1,100-263,0-003
2017-12-15 09:43:11:790,9128283H1,100-215,0-00+
2017-12-15 09:43:12:90,9128283H1,100-215,0-00+
2017-12-15 09:43:12:390,9128283H1,99-092,0-003
2017-12-15 09:43:12:690,9128283H1,99-117,0-003
2017-12-15 09:43:12:990,9128283H1,99-175,0-00+
2017-12-15 09:43:13:290,9128283H1,99-227,0-00+
2017-12-15 09:43:13:590,9128283H1,99-286,0-003
2017-12-15 09:43:13:890,9128283H1,100-020,0-003
2017-12-15 09:43:14:190,9128283H1,100-102,0-003
2017-12-15 09:43:14:490,9128283H1,100-267,0-00+
2017-12-15 09:43:14:790,9128283H1,99-165,0-002
2017-12-15 09:43:15:90,9128283H1,99-087,0-003
2017-12-15 09:43:15:390,9128283H1,99-010,0-003
2017-12-15 09:43:15:691,9128283H1,100-146,0-003
2017-12-15 09:43:15:991,9128283H1,99-266,0-002
2017-12-15 09:43:16:291,9128283H1,99-275,0-003
2017-12-15 09:43:16:591,9128283H1,100-121,0-003
2017-12-15 09:43:16:891,9128283H1,99-102,0-002
2017-12-15 09:43:17:191,9128283H1,99-065,0-003
2017-12-15 09:43:17:491,9128283H1,99-163,0-003
2017-12-15 09:43:17:791,9128283H1,100-016,0-00+
2017-12-15 09:43:18:91,9128283H1,99-260,0-002
2017-12-15 09:43:18:392,9128283H1,100-122,0-00+
2017-12-15 09:43:18:692,9128283H1,99-30+,0-002
2017-12-15 09:43:18:992,9128283H1,100-005,0-00+
2017-12-15 09:43:19:292,9128283H1,100-136,0-00+
2017-12-15 09:43:19:592,9128283H1,100-220,0-00+
2017-12-15 09:43:19:892,9128283H1,100-286,0-00+
2017-12-15 09:43:20:192,9128283H1,100-081,0-00+
2017-12-15 09:43:20:492,9128283H1,100-016,0-00+
2017-12-15 09:43:20:792,9128283H1,100-011,0-002
2017-12-15 09:43:21:92,9128283H1,100-047,0-002
2017-12-15 09:43:21:392,9128283H1,99-243,0-00+
2017-12-15 09:43:21:692,9128283H1,99-157,0-002
2017-12-15 09:43:21:992,9128283H1,99-092,0-003
2017-12-15 09:43:22:292,9128283H1,99-112,0-00+
2017-12-15 09:43:22:592,9128283H1,100-27+,0-003
2017-12-15 09:43:22:893,9128283H1,100-055,0-002
2017-12-15 09:43:23:193,9128283H1,99-166,0-003
2017-12-15 09:43:23:493,9128283H1,99-151,0-002
2017-12-15 09:43:23:793,9128283H1,99-116,0-002
2017-12-15 09:43:24:93,9128283H1,99-056,0-002
2017-12-15 09:43:24:393,9128283H1,99-136,0-003
2017-12-15 09:43:24:693,9128283H1,99-17+,0-003
2017-12-15 09:43:24:993,9128283H1,99-045,0-002
2017-12-15 09:43:25:293,9128283H1,100-247,0-003
2017-12-15 09:43:25:593,9128283H1,100-27+,0-003
2017-12-15 09:43:25:893,9128283H1,99-131,0-00+
2017-12-15 09:43:26:193,9128283H1,99-060,0-00+
2017-12-15 09:43:26:493,9128283H1,100-281,0-002
2017-12-15 09:43:26:793,9128283H1,99-316,0-003
2017-12-15 09:43:27:94,9128283H1,99-051,0-003
2017-12-15 09:43:27:394,9128283H1,99-065,0-003
2017-12-15 09:43:27:703,9128283H1,100-143,0-003
2017-12-15 09:43:27:994,9128283H1,100-100,0-00+
2017-12-15 09:43:28:294,9128283H1,100-177,0-00+
2017-12-15 09:43:28:594,9128283H1,100-182,0-00+
2017-12-15 09:43:28:894,9128283H1,100-192,0-003
2017-12-15 09:43:29:194,9128283H1,100-23+,0-00+
2017-12-15 09:43:29:494,9128283H1,99-021,0-003
2017-12-15 09:43:29:794,9128283H1,100-210,0-002
2017-12-15 09:43:30:94,9128283H1,100-172,0-002
2017-12-15 09:43:30:394,9128283H1,100-01+,0-002
2017-12-15 09:43:30:694,9128283H1,99-206,0-002
2017-12-15 09:43:30:994,9128283H1,99-080,0-002
2017-12-15 09:43:31:294,9128283H1,100-305,0-00+
2017-12-15 09:43:31:595,9128283H1,100-097,0-003
2017-12-15 09:43:31:895,9128283H1,99-222,0-002
2017-12-15 09:43:32:195,9128283H1,99-056,0-002
2017-12-15 09:43:32:495,9128283H1,99-282,0-002
2017-12-15 09:43:32:795,9128283H1,99-27+,0-002
